^C:\USERS\AARON\DOCUMENTS\VISUAL STUDIO 2015\PROJECTS\COMG_ASSIGNMENT_2\COMMON\RELEASE\MATRIXSTACK.OBJ|C:\USERS\AARON\DOCUMENTS\VISUAL STUDIO 2015\PROJECTS\COMG_ASSIGNMENT_2\COMMON\RELEASE\MTX44.OBJ|C:\USERS\AARON\DOCUMENTS\VISUAL STUDIO 2015\PROJECTS\COMG_ASSIGNMENT_2\COMMON\RELEASE\TIMER.OBJ|C:\USERS\AARON\DOCUMENTS\VISUAL STUDIO 2015\PROJECTS\COMG_ASSIGNMENT_2\COMMON\RELEASE\VECTOR3.OBJ
/OUT:"C:\USERS\AARON\DOCUMENTS\VISUAL STUDIO 2015\PROJECTS\COMG_ASSIGNMENT_2\RELEASE\COMMON.LIB" /NOLOGO /LTCG RELEASE\MATRIXSTACK.OBJRELEASE\MTX44.OBJRELEASE\TIMER.OBJRELEASE\VECTOR3.OBJ
^D:\USERS\N506\DOWNLOADS\COMG_ASSIGNMENT_2\COMMON\RELEASE\MATRIXSTACK.OBJ|D:\USERS\N506\DOWNLOADS\COMG_ASSIGNMENT_2\COMMON\RELEASE\MTX44.OBJ|D:\USERS\N506\DOWNLOADS\COMG_ASSIGNMENT_2\COMMON\RELEASE\TIMER.OBJ|D:\USERS\N506\DOWNLOADS\COMG_ASSIGNMENT_2\COMMON\RELEASE\VECTOR3.OBJ
/OUT:"D:\USERS\N506\DOWNLOADS\COMG_ASSIGNMENT_2\RELEASE\COMMON.LIB" /NOLOGO /LTCG RELEASE\MATRIXSTACK.OBJRELEASE\MTX44.OBJRELEASE\TIMER.OBJRELEASE\VECTOR3.OBJ
^D:\USERS\N506\DOCUMENTS\SP2_T7\COMMON\RELEASE\MATRIXSTACK.OBJ|D:\USERS\N506\DOCUMENTS\SP2_T7\COMMON\RELEASE\MTX44.OBJ|D:\USERS\N506\DOCUMENTS\SP2_T7\COMMON\RELEASE\TIMER.OBJ|D:\USERS\N506\DOCUMENTS\SP2_T7\COMMON\RELEASE\VECTOR3.OBJ
/OUT:"D:\USERS\N506\DOCUMENTS\SP2_T7\RELEASE\COMMON.LIB" /NOLOGO /LTCG RELEASE\MATRIXSTACK.OBJRELEASE\MTX44.OBJRELEASE\TIMER.OBJRELEASE\VECTOR3.OBJ
