^D:\USERS\N506\DOCUMENTS\SP2_T7\MYGRAPHICS\SOURCE\APPLICATION.CPP|D:\USERS\N506\DOCUMENTS\SP2_T7\MYGRAPHICS\SOURCE\CAMERA.CPP|D:\USERS\N506\DOCUMENTS\SP2_T7\MYGRAPHICS\SOURCE\CAMERAMAIN.CPP|D:\USERS\N506\DOCUMENTS\SP2_T7\MYGRAPHICS\SOURCE\LOADOBJ.CPP|D:\USERS\N506\DOCUMENTS\SP2_T7\MYGRAPHICS\SOURCE\LOADTGA.CPP|D:\USERS\N506\DOCUMENTS\SP2_T7\MYGRAPHICS\SOURCE\MAIN.CPP|D:\USERS\N506\DOCUMENTS\SP2_T7\MYGRAPHICS\SOURCE\MESH.CPP|D:\USERS\N506\DOCUMENTS\SP2_T7\MYGRAPHICS\SOURCE\MESHBUILDER.CPP|D:\USERS\N506\DOCUMENTS\SP2_T7\MYGRAPHICS\SOURCE\SCENEMAIN.CPP|D:\USERS\N506\DOCUMENTS\SP2_T7\MYGRAPHICS\SOURCE\SHADER.CPP|D:\USERS\N506\DOCUMENTS\SP2_T7\MYGRAPHICS\SOURCE\UTILITY.CPP
D:\USERS\N506\DOCUMENTS\SP2_T7\MYGRAPHICS\DEBUG\VC140.PDB
D:\USERS\N506\DOCUMENTS\SP2_T7\MYGRAPHICS\DEBUG\VC140.IDB
D:\USERS\N506\DOCUMENTS\SP2_T7\MYGRAPHICS\DEBUG\APPLICATION.OBJ
D:\USERS\N506\DOCUMENTS\SP2_T7\MYGRAPHICS\DEBUG\CAMERA.OBJ
D:\USERS\N506\DOCUMENTS\SP2_T7\MYGRAPHICS\DEBUG\CAMERAMAIN.OBJ
D:\USERS\N506\DOCUMENTS\SP2_T7\MYGRAPHICS\DEBUG\LOADOBJ.OBJ
D:\USERS\N506\DOCUMENTS\SP2_T7\MYGRAPHICS\DEBUG\LOADTGA.OBJ
D:\USERS\N506\DOCUMENTS\SP2_T7\MYGRAPHICS\DEBUG\MAIN.OBJ
D:\USERS\N506\DOCUMENTS\SP2_T7\MYGRAPHICS\DEBUG\MESH.OBJ
D:\USERS\N506\DOCUMENTS\SP2_T7\MYGRAPHICS\DEBUG\MESHBUILDER.OBJ
D:\USERS\N506\DOCUMENTS\SP2_T7\MYGRAPHICS\DEBUG\SCENEMAIN.OBJ
D:\USERS\N506\DOCUMENTS\SP2_T7\MYGRAPHICS\DEBUG\SHADER.OBJ
D:\USERS\N506\DOCUMENTS\SP2_T7\MYGRAPHICS\DEBUG\UTILITY.OBJ
^D:\USERS\N506\DOCUMENTS\SP2_T7\MYGRAPHICS\SOURCE\APPLICATION.CPP
D:\USERS\N506\DOCUMENTS\SP2_T7\MYGRAPHICS\DEBUG\VC140.PDB
^D:\USERS\N506\DOCUMENTS\SP2_T7\MYGRAPHICS\SOURCE\CAMERA.CPP
D:\USERS\N506\DOCUMENTS\SP2_T7\MYGRAPHICS\DEBUG\VC140.PDB
^D:\USERS\N506\DOCUMENTS\SP2_T7\MYGRAPHICS\SOURCE\CAMERAMAIN.CPP
D:\USERS\N506\DOCUMENTS\SP2_T7\MYGRAPHICS\DEBUG\VC140.PDB
^D:\USERS\N506\DOCUMENTS\SP2_T7\MYGRAPHICS\SOURCE\LOADOBJ.CPP
D:\USERS\N506\DOCUMENTS\SP2_T7\MYGRAPHICS\DEBUG\VC140.PDB
^D:\USERS\N506\DOCUMENTS\SP2_T7\MYGRAPHICS\SOURCE\LOADTGA.CPP
D:\USERS\N506\DOCUMENTS\SP2_T7\MYGRAPHICS\DEBUG\VC140.PDB
^D:\USERS\N506\DOCUMENTS\SP2_T7\MYGRAPHICS\SOURCE\MAIN.CPP
D:\USERS\N506\DOCUMENTS\SP2_T7\MYGRAPHICS\DEBUG\VC140.PDB
^D:\USERS\N506\DOCUMENTS\SP2_T7\MYGRAPHICS\SOURCE\MESH.CPP
D:\USERS\N506\DOCUMENTS\SP2_T7\MYGRAPHICS\DEBUG\VC140.PDB
^D:\USERS\N506\DOCUMENTS\SP2_T7\MYGRAPHICS\SOURCE\MESHBUILDER.CPP
D:\USERS\N506\DOCUMENTS\SP2_T7\MYGRAPHICS\DEBUG\VC140.PDB
^D:\USERS\N506\DOCUMENTS\SP2_T7\MYGRAPHICS\SOURCE\SCENEMAIN.CPP
D:\USERS\N506\DOCUMENTS\SP2_T7\MYGRAPHICS\DEBUG\VC140.PDB
D:\USERS\N506\DOCUMENTS\SP2_T7\MYGRAPHICS\DEBUG\VC140.IDB
D:\USERS\N506\DOCUMENTS\SP2_T7\MYGRAPHICS\DEBUG\SCENEMAIN.OBJ
^D:\USERS\N506\DOCUMENTS\SP2_T7\MYGRAPHICS\SOURCE\SHADER.CPP
D:\USERS\N506\DOCUMENTS\SP2_T7\MYGRAPHICS\DEBUG\VC140.PDB
^D:\USERS\N506\DOCUMENTS\SP2_T7\MYGRAPHICS\SOURCE\UTILITY.CPP
D:\USERS\N506\DOCUMENTS\SP2_T7\MYGRAPHICS\DEBUG\VC140.PDB
^D:\USERS\N506\DOCUMENTS\SP2_T7\MYGRAPHICS\SOURCE\APPLICATION.CPP|D:\USERS\N506\DOCUMENTS\SP2_T7\MYGRAPHICS\SOURCE\CAMERAMAIN.CPP|D:\USERS\N506\DOCUMENTS\SP2_T7\MYGRAPHICS\SOURCE\COLLISIONCHECKER.CPP|D:\USERS\N506\DOCUMENTS\SP2_T7\MYGRAPHICS\SOURCE\COLLISIONNODE.CPP|D:\USERS\N506\DOCUMENTS\SP2_T7\MYGRAPHICS\SOURCE\SCENEMAIN.CPP|D:\USERS\N506\DOCUMENTS\SP2_T7\MYGRAPHICS\SOURCE\SLOPECAM.CPP|D:\USERS\N506\DOCUMENTS\SP2_T7\MYGRAPHICS\SOURCE\SLOPEMEASUREDEV.CPP
D:\USERS\N506\DOCUMENTS\SP2_T7\MYGRAPHICS\DEBUG\VC140.PDB
D:\USERS\N506\DOCUMENTS\SP2_T7\MYGRAPHICS\DEBUG\VC140.IDB
D:\USERS\N506\DOCUMENTS\SP2_T7\MYGRAPHICS\DEBUG\APPLICATION.OBJ
D:\USERS\N506\DOCUMENTS\SP2_T7\MYGRAPHICS\DEBUG\CAMERAMAIN.OBJ
D:\USERS\N506\DOCUMENTS\SP2_T7\MYGRAPHICS\DEBUG\COLLISIONCHECKER.OBJ
D:\USERS\N506\DOCUMENTS\SP2_T7\MYGRAPHICS\DEBUG\COLLISIONNODE.OBJ
D:\USERS\N506\DOCUMENTS\SP2_T7\MYGRAPHICS\DEBUG\SCENEMAIN.OBJ
D:\USERS\N506\DOCUMENTS\SP2_T7\MYGRAPHICS\DEBUG\SLOPECAM.OBJ
D:\USERS\N506\DOCUMENTS\SP2_T7\MYGRAPHICS\DEBUG\SLOPEMEASUREDEV.OBJ
^D:\USERS\N506\DOCUMENTS\SP2_T7\MYGRAPHICS\SOURCE\COLLISIONCHECKER.CPP
D:\USERS\N506\DOCUMENTS\SP2_T7\MYGRAPHICS\DEBUG\VC140.PDB
^D:\USERS\N506\DOCUMENTS\SP2_T7\MYGRAPHICS\SOURCE\COLLISIONNODE.CPP
D:\USERS\N506\DOCUMENTS\SP2_T7\MYGRAPHICS\DEBUG\VC140.PDB
^D:\USERS\N506\DOCUMENTS\SP2_T7\MYGRAPHICS\SOURCE\SLOPECAM.CPP
D:\USERS\N506\DOCUMENTS\SP2_T7\MYGRAPHICS\DEBUG\VC140.PDB
^D:\USERS\N506\DOCUMENTS\SP2_T7\MYGRAPHICS\SOURCE\SLOPEMEASUREDEV.CPP
D:\USERS\N506\DOCUMENTS\SP2_T7\MYGRAPHICS\DEBUG\VC140.PDB
